[
    {
        "fields": {
            "benefitial_admission_fee": 350.0,
            "benefitial_admission_fee_company": 450.0,
            "email_footer": "",
            "free_entry_cases_html": "",
            "invoice_sequence_number_first": 1,
            "invoice_sequence_number_last": 999999999,
            "mailing_list_enabled": null,
            "mailing_list_id": "12345abcde",
            "minimum_percentage": 66,
            "minimum_rides_base": 25,
            "name": "Testing campaign - last year",
            "package_depth": 35,
            "package_height": 1,
            "package_weight": 0.25,
            "package_width": 26,
            "previous_campaign": null,
            "slug": "testing-campaign-ly",
            "tracking_number_first": 0,
            "tracking_number_last": 999999999,
            "trip_plus_distance": 5
        },
        "model": "dpnk.campaign",
        "pk": 338
    },
    {
        "fields": {
            "benefitial_admission_fee": 350.0,
            "benefitial_admission_fee_company": 450.0,
            "email_footer": "",
            "free_entry_cases_html": "",
            "invoice_sequence_number_first": 1,
            "invoice_sequence_number_last": 999999999,
            "mailing_list_enabled": null,
            "mailing_list_id": "12345abcde",
            "minimum_percentage": 66,
            "minimum_rides_base": 25,
            "name": "Testing campaign",
            "package_depth": 35,
            "package_height": 1,
            "package_weight": 0.25,
            "package_width": 26,
            "previous_campaign": 338,
            "slug": "testing-campaign",
            "tracking_number_first": 1111111,
            "tracking_number_last": 999999999,
            "trip_plus_distance": 5
        },
        "model": "dpnk.campaign",
        "pk": 339
    },
    {
        "fields": {
            "campaign": 339,
            "date_from": "2010-11-01",
            "date_to": "2010-11-30",
            "phase_type": "registration"
        },
        "model": "dpnk.phase",
        "pk": 1
    },
    {
        "fields": {
            "campaign": 339,
            "city": [],
            "company": null,
            "competitor_type": "team",
            "date_from": "2010-11-01",
            "date_to": "2010-11-15",
            "entry_after_beginning_days": 7,
            "is_public": true,
            "name": "Pravidelnost týmů",
            "public_answers": false,
            "rules": null,
            "sex": null,
            "slug": "FQ-LB",
            "competition_type": "frequency",
            "minimum_rides_base": 23,
            "url": "http://www.dopracenakole.net/url/",
            "commute_modes": [1, 2]
        },
        "model": "dpnk.competition",
        "pk": 3
    },
    {
        "fields": {
            "campaign": 339,
            "city": [],
            "company": 1,
            "competitor_type": "single_user",
            "date_from": "2010-11-01",
            "date_to": "2010-11-15",
            "entry_after_beginning_days": 7,
            "is_public": true,
            "name": "Pravidelnost jednotlivců",
            "public_answers": false,
            "rules": null,
            "sex": null,
            "slug": "pravidelnost-jednotlivcu",
            "competition_type": "frequency",
            "minimum_rides_base": 23,
            "url": "http://www.dopracenakole.net/url/",
            "commute_modes": [1, 2]
        },
        "model": "dpnk.competition",
        "pk": 12
    },
    {
        "fields": {
           "question_type": "text",
           "comment_type": null,
           "with_attachment": false,
           "text": "Team question text",
           "name": "Team question",
           "required": false,
           "competition": 13
        },
        "model": "dpnk.question",
        "pk": 6
    },
    {
        "fields": {
           "question_type": "text",
           "comment_type": null,
           "with_attachment": false,
           "text": "Question text",
           "name": "Question 5 name",
           "required": false,
           "competition": 4
        },
        "model": "dpnk.question",
        "pk": 5
    },
    {
        "fields": {
           "question_type": "text",
           "comment_type": "link",
           "with_attachment": true,
           "name": "Question 4 name",
           "competition": 4
        },
        "model": "dpnk.question",
        "pk": 4
    },
    {
        "fields": {
           "question_type": "text",
           "comment_type": "one-liner",
           "with_attachment": true,
           "competition": 4
        },
        "model": "dpnk.question",
        "pk": 3
    },
    {
        "fields": {
           "question_type": "choice",
           "required": false,
           "with_attachment": false,
           "competition": 4
        },
        "model": "dpnk.question",
        "pk": 1
    },
    {
        "fields": {
           "question_type": "choice",
           "choice_type": 1,
           "with_attachment": true,
           "competition": 4
        },
        "model": "dpnk.question",
        "pk": 2
    },
    {
        "fields": {
           "text": "yes",
           "points": 10,
           "choice_type": 1
        },
        "model": "dpnk.choice",
        "pk": 1
    },
    {
        "fields": {
           "text": "no",
           "points": 3,
           "choice_type": 1
        },
        "model": "dpnk.choice",
        "pk": 2
    },
    {
        "fields": {
           "name": "yes/no",
           "competition": 4
        },
        "model": "dpnk.choicetype",
        "pk": 1
    },
    {
        "fields": {
           "team": 1,
           "result": 100,
           "competition": 3
        },
        "model": "dpnk.competitionresult",
        "pk": 0
    },
    {
        "fields": {
            "campaign": 339,
            "city": [],
            "company": null,
            "competitor_type": "single_user",
            "date_from": "2010-11-01",
            "date_to": "2010-12-02",
            "entry_after_beginning_days": 7,
            "is_public": true,
            "name": "Dotazník",
            "public_answers": true,
            "rules": null,
            "sex": null,
            "slug": "quest",
            "competition_type": "questionnaire",
            "url": "http://www.dopracenakole.net/url/"
        },
        "model": "dpnk.competition",
        "pk": 4
    },
    {
        "fields": {
            "campaign": 339,
            "city": [1],
            "company": null,
            "competitor_type": "team",
            "date_from": "2010-11-01",
            "date_to": "2010-12-02",
            "entry_after_beginning_days": 7,
            "is_public": true,
            "name": "Dotazník týmů",
            "public_answers": true,
            "rules": null,
            "sex": null,
            "slug": "team-questionnaire",
            "competition_type": "questionnaire",
            "url": "http://www.dopracenakole.net/url/"
        },
        "model": "dpnk.competition",
        "pk": 13
    },
    {
        "fields": {
            "campaign": 339,
            "city": [1],
            "company": null,
            "competitor_type": "single_user",
            "date_from": "2010-11-01",
            "date_to": "2010-12-30",
            "entry_after_beginning_days": 7,
            "is_public": true,
            "name": "Výkonnost",
            "public_answers": false,
            "rules": null,
            "sex": "male",
            "slug": "vykonnost",
            "competition_type": "length",
            "url": "http://www.dopracenakole.net/url/",
            "commute_modes": [1, 2]
        },
        "model": "dpnk.competition",
        "pk": 5
    },
    {
        "fields": {
            "campaign": 339,
            "city": [1],
            "company": null,
            "competitor_type": "team",
            "date_from": "2010-11-01",
            "date_to": "2010-12-30",
            "entry_after_beginning_days": 7,
            "is_public": true,
            "name": "Výkonnost týmů",
            "public_answers": false,
            "rules": null,
            "sex": "male",
            "slug": "vykonnost-tymu",
            "competition_type": "length",
            "url": "http://www.dopracenakole.net/url/",
            "commute_modes": [1, 2]
        },
        "model": "dpnk.competition",
        "pk": 9
    },
    {
        "fields": {
            "campaign": 339,
            "city": [1],
            "company": null,
            "competitor_type": "single_user",
            "date_from": "2010-11-01",
            "date_to": "2010-12-30",
            "entry_after_beginning_days": 7,
            "is_public": true,
            "name": "Výkonnost ve městě",
            "public_answers": false,
            "rules": "Competition vykonnostr rules",
            "sex": null,
            "slug": "vykonnost-mesto",
            "competition_type": "length",
            "url": "http://www.dopracenakole.net/url/",
            "commute_modes": [1, 2]
        },
        "model": "dpnk.competition",
        "pk": 6
    },
    {
        "fields": {
            "campaign": 339,
            "city": [1],
            "company": null,
            "competitor_type": "company",
            "date_from": "2010-11-01",
            "date_to": "2010-12-30",
            "entry_after_beginning_days": 7,
            "is_public": true,
            "name": "Výkonnost společností",
            "public_answers": false,
            "rules": "Competition rules",
            "sex": null,
            "slug": "vykonnost-spolecnosti",
            "competition_type": "length",
            "url": "http://www.dopracenakole.net/url/",
            "commute_modes": [1, 2]
        },
        "model": "dpnk.competition",
        "pk": 8
    },
    {
        "fields": {
            "campaign": 339,
            "city": [1],
            "company": 1,
            "competitor_type": "company",
            "date_from": "2010-11-01",
            "date_to": "2010-12-30",
            "entry_after_beginning_days": 7,
            "is_public": true,
            "name": "Pravidelnost společností",
            "public_answers": false,
            "rules": "Competition rules",
            "sex": null,
            "slug": "pravidelnost-spolecnosti",
            "competition_type": "frequency",
            "url": "http://www.dopracenakole.net/url/",
            "commute_modes": [1, 2]
        },
        "model": "dpnk.competition",
        "pk": 10
    },
    {
        "fields": {
            "campaign": 339,
            "city": [],
            "company": null,
            "competitor_type": "company",
            "date_from": "2010-11-01",
            "date_to": "2010-12-30",
            "entry_after_beginning_days": 7,
            "is_public": true,
            "name": "Dotazník společností",
            "public_answers": false,
            "rules": "Competition rules",
            "sex": null,
            "slug": "dotaznik-spolecnosti",
            "competition_type": "questionnaire",
            "url": "http://www.dopracenakole.net/url/"
        },
        "model": "dpnk.competition",
        "pk": 11
    },
    {
        "fields": {
            "pricable": 339,
            "takes_effect_on": "2000-1-01",
            "price": 120,
            "category": "basic"
        },
        "model": "price_level.PriceLevel",
        "pk": 1
    },
    {
        "fields": {
            "pricable": 339,
            "takes_effect_on": "2000-1-01",
            "price": 130,
            "category": "company"
        },
        "model": "price_level.PriceLevel",
        "pk": 2
    },
    {
        "fields": {
            "pricable": 339,
            "takes_effect_on": "2011-1-01",
            "price": 210,
            "category": "basic"
        },
        "model": "price_level.PriceLevel",
        "pk": 3
    },
    {
        "fields": {
            "pricable": 339,
            "takes_effect_on": "2011-1-01",
            "price": 230,
            "category": "company"
        },
        "model": "price_level.PriceLevel",
        "pk": 4
    },
    {
        "fields": {
            "campaign": 339,
            "phase_type": "invoices"
        },
        "model": "dpnk.phase",
        "pk": 4
    },
    {
        "fields": {
            "campaign": 339,
            "phase_type": "payment"
        },
        "model": "dpnk.phase",
        "pk": 3
    },
    {
        "fields": {
            "campaign": 339,
            "date_from": "2010-11-01",
            "date_to": "2010-11-30",
            "phase_type": "competition"
        },
        "model": "dpnk.phase",
        "pk": 2
    },
    {
        "fields": {
            "campaign": 338,
            "date_from": "2009-12-01",
            "date_to": "2009-12-30",
            "phase_type": "competition"
        },
        "model": "dpnk.phase",
        "pk": 6
    },
    {
        "fields": {
            "campaign": 339,
            "date_from": "2010-11-01",
            "date_to": "2010-11-30",
            "phase_type": "entry_enabled"
        },
        "model": "dpnk.phase",
        "pk": 7
    },
    {
        "fields": {
            "campaign": 338,
            "date_from": "2009-12-01",
            "date_to": "2009-12-30",
            "phase_type": "entry_enabled"
        },
        "model": "dpnk.phase",
        "pk": 8
    }
]
